-100.80213903743316 -18.072289156626507
-98.1283422459893 -54.21686746987952
-95.72192513368984 -42.168674698795186
-93.85026737967914 -24.096385542168676
-91.97860962566845 -42.168674698795186
-90.10695187165776 -66.26506024096386
-87.96791443850267 -72.28915662650603
-85.56149732620321 -36.144578313253014
-83.42245989304813 6.024096385542169
-81.01604278074866 42.168674698795186
-78.87700534759358 18.072289156626507
-75.66844919786097 -6.024096385542169
-73.52941176470588 6.024096385542169
-71.3903743315508 36.144578313253014
-69.78609625668449 84.33734939759037
-68.71657754010695 120.48192771084338
-67.11229946524064 66.26506024096386
-65.24064171122996 66.26506024096386
-63.101604278074866 12.048192771084338
-61.76470588235294 -30.120481927710845
-60.42780748663102 -72.28915662650603
-58.02139037433155 -78.3132530120482
-55.88235294117647 -108.43373493975903
-53.475935828877006 -66.26506024096386
-51.8716577540107 -36.144578313253014
-48.1283422459893   -24.096385542168676
-46.524064171122994 -84.33734939759037
-45.45454545454545 -138.55421686746988
-43.31550802139037 -132.53012048192772
-41.711229946524064 -90.36144578313254
-40.37433155080214 -36.144578313253014
-39.037433155080215 12.048192771084338
-37.16577540106952 30.120481927710845
-35.294117647058826 72.28915662650603
-33.68983957219251 108.43373493975903
-31.818181818181817 66.26506024096386
-30.481283422459892 -6.024096385542169
-29.144385026737968 -60.24096385542169
-28.609625668449198 -114.45783132530121
-28.074866310160427 -174.6987951807229
-27.27272727272727 -234.93975903614458
-26.737967914438503 -295.1807228915663
-25.13368983957219 -246.98795180722894
-24.331550802139034 -192.7710843373494
-23.796791443850267 -120.48192771084338
-23.52941176470588 -60.24096385542169
-22.727272727272727 0
-21.390374331550802 42.168674698795186
-20.32085561497326 -18.072289156626507
-19.78609625668449 -78.3132530120482
-18.983957219251334 -138.55421686746988
-18.71657754010695 -210.84337349397592
-17.914438502673796 -277.10843373493975
-16.844919786096256 -331.3253012048193
-15.775401069518715 -379.51807228915663
-14.171122994652407 -319.27710843373495
-12.834224598930483 -265.06024096385545
-11.764705882352942 -204.81927710843374
-11.764705882352942 -132.53012048192772
-11.229946524064168 -66.26506024096386
-10.962566844919785 -12.048192771084338
-9.893048128342244 48.19277108433735
-8.021390374331546 78.3132530120482
-6.684491978609621 138.55421686746988
-5.882352941176471 198.7951807228916
-4.81283422459893 277.10843373493975
-3.7433155080213893 331.3253012048193
-2.941176470588232 391.566265060241
-1.6042780748663077 445.7831325301205
0.534759358288774 421.68674698795184
1.3368983957219314  319.27710843373495
4.278074866310163 319.27710843373495
5.614973262032088 234.93975903614458
6.684491978609628 168.67469879518075
7.754010695187169 84.33734939759037
9.625668449197867  96.3855421686747
10.695187165775401  36.144578313253014
11.229946524064175 -36.144578313253014
12.299465240641716 -96.3855421686747
12.5668449197861   -162.65060240963857
13.903743315508024 -234.93975903614458
15.508021390374338 -168.67469879518075
16.31016042780749  -114.45783132530121
17.379679144385037 -72.28915662650603
18.983957219251337 -114.45783132530121
20.855614973262036 -132.53012048192772
22.45989304812835  -60.24096385542169
23.529411764705884 30.120481927710845
24.331550802139034 102.40963855421687
26.203208556149733 132.53012048192772
28.342245989304814 96.3855421686747
30.481283422459896 48.19277108433735
33.68983957219251  6.024096385542169
36.363636363636374 -6.024096385542169
39.304812834224606 -54.21686746987952
41.44385026737969  -102.40963855421687
43.04812834224599  -42.168674698795186
44.6524064171123   18.072289156626507
47.05882352941177   6.024096385542169
48.66310160427808   6.024096385542169
49.73262032085562  -78.3132530120482
50.53475935828878  -132.53012048192772
51.8716577540107   -204.81927710843374
54.01069518716578  -120.48192771084338
56.14973262032086  -30.120481927710845
56.95187165775401   18.072289156626507
58.28877005347594   60.24096385542166
60.16042780748664   84.33734939759037
61.49732620320856   42.168674698795186
62.83422459893049   0